# Fdb version 3
["bibtex conference_poster_6"] 1558365457 "conference_poster_6.aux" "conference_poster_6.bbl" "conference_poster_6" 1558369551
  "/usr/share/texlive/texmf-dist/bibtex/bst/base/plain.bst" 1480098433 20613 bd3fbfa9f64872b81ac57a0dd2ed855f ""
  "biblio.bib" 1558356394 895 c92c36844cba4deb2ee0bbb5f3345422 ""
  "conference_poster_6.aux" 1558369549 1049 36f516204dd2e74ccf99e6bdd3cc880e ""
  "conference_poster_6.bcf" 0 -1 0 ""
  (generated)
  "conference_poster_6.blg"
  "conference_poster_6.bbl"
["pdflatex"] 1558369549 "conference_poster_6.tex" "conference_poster_6.pdf" "conference_poster_6" 1558369551
  "/etc/texmf/web2c/texmf.cnf" 1551275572 475 c0e671620eb5563b2130f56340a5fde8 ""
  "/usr/share/texlive/texmf-dist/fonts/map/fontname/texfonts.map" 1511824771 3332 103109f5612ad95229751940c61aada0 ""
  "/usr/share/texlive/texmf-dist/fonts/tfm/public/amsfonts/symbols/msam10.tfm" 1480098698 916 f87d7c45f9c908e672703b83b72241a3 ""
  "/usr/share/texlive/texmf-dist/fonts/tfm/public/amsfonts/symbols/msbm10.tfm" 1480098698 908 2921f8a10601f252058503cc6570e581 ""
  "/usr/share/texlive/texmf-dist/fonts/tfm/public/cm/cmex10.tfm" 1480098701 992 662f679a0b3d2d53c1b94050fdaa3f50 ""
  "/usr/share/texlive/texmf-dist/fonts/tfm/public/cm/cmmi12.tfm" 1480098701 1524 4414a8315f39513458b80dfc63bff03a ""
  "/usr/share/texlive/texmf-dist/fonts/tfm/public/cm/cmr12.tfm" 1480098701 1288 655e228510b4c2a1abe905c368440826 ""
  "/usr/share/texlive/texmf-dist/fonts/tfm/public/cm/cmr17.tfm" 1480098701 1292 296a67155bdbfc32aa9c636f21e91433 ""
  "/usr/share/texlive/texmf-dist/fonts/tfm/public/cm/cmsy10.tfm" 1480098701 1124 6c73e740cf17375f03eec0ee63599741 ""
  "/usr/share/texlive/texmf-dist/tex/latex/amscls/amsthm.sty" 1513722769 12604 3dec726c041422879dc3268237f09026 ""
  "/usr/share/texlive/texmf-dist/tex/latex/amsfonts/amsfonts.sty" 1480098820 5949 3f3fd50a8cc94c3d4cbf4fc66cd3df1c ""
  "/usr/share/texlive/texmf-dist/tex/latex/amsfonts/amssymb.sty" 1480098820 13829 94730e64147574077f8ecfea9bb69af4 ""
  "/usr/share/texlive/texmf-dist/tex/latex/amsfonts/umsa.fd" 1480098820 961 6518c6525a34feb5e8250ffa91731cff ""
  "/usr/share/texlive/texmf-dist/tex/latex/amsfonts/umsb.fd" 1480098820 961 d02606146ba5601b5645f987c92e6193 ""
  "/usr/share/texlive/texmf-dist/tex/latex/amsmath/amsbsy.sty" 1480098820 2210 5c54ab129b848a5071554186d0168766 ""
  "/usr/share/texlive/texmf-dist/tex/latex/amsmath/amsgen.sty" 1480098820 4160 c115536cf8d4ff25aa8c1c9bc4ecb79a ""
  "/usr/share/texlive/texmf-dist/tex/latex/amsmath/amsmath.sty" 1504905757 84352 897a476d96a0681047a5b0f91178a3d2 ""
  "/usr/share/texlive/texmf-dist/tex/latex/amsmath/amsopn.sty" 1480098820 4115 318a66090112f3aa3f415aeb6fe8540f ""
  "/usr/share/texlive/texmf-dist/tex/latex/amsmath/amstext.sty" 1480098820 2431 fe3078ec12fc30287f568596f8e0b948 ""
  "/usr/share/texlive/texmf-dist/tex/latex/base/article.cls" 1480098821 19821 310da678527a7dfe2a02c88af38079b7 ""
  "/usr/share/texlive/texmf-dist/tex/latex/base/size10.clo" 1480098821 8292 e897c12e1e886ce77fe26afc5d470886 ""
  "/usr/share/texlive/texmf-dist/tex/latex/booktabs/booktabs.sty" 1480098823 5869 94335281ffcab47f341cf07ea8220e30 ""
  "/usr/share/texlive/texmf-dist/tex/latex/caption/caption.sty" 1480098823 66233 8b81cfab95a1f8fc2f0f6c89415b087a ""
  "/usr/share/texlive/texmf-dist/tex/latex/caption/caption3.sty" 1480098823 64866 1ea74c5f2d1685881497f021b8f186b2 ""
  "/usr/share/texlive/texmf-dist/tex/latex/graphics-cfg/color.cfg" 1480098830 1213 620bba36b25224fa9b7e1ccb4ecb76fd ""
  "/usr/share/texlive/texmf-dist/tex/latex/graphics-cfg/graphics.cfg" 1480098830 1224 978390e9c2234eab29404bc21b268d1e ""
  "/usr/share/texlive/texmf-dist/tex/latex/graphics-def/xetex.def" 1498427493 12707 672c620846df0fecf0a7a99fed83566d ""
  "/usr/share/texlive/texmf-dist/tex/latex/graphics/graphics.sty" 1498427532 15275 7d676729b1bedd3e7f3c6717affb366c ""
  "/usr/share/texlive/texmf-dist/tex/latex/graphics/graphicx.sty" 1498427532 9066 649f2ccf62888e3d8c3e57256b70b8e1 ""
  "/usr/share/texlive/texmf-dist/tex/latex/graphics/keyval.sty" 1480098830 2594 d18d5e19aa8239cf867fa670c556d2e9 ""
  "/usr/share/texlive/texmf-dist/tex/latex/graphics/trig.sty" 1480098830 3980 0a268fbfda01e381fa95821ab13b6aee ""
  "/usr/share/texlive/texmf-dist/tex/latex/mathtools/mathtools.sty" 1515449928 53430 0411f0481da6078e76fd7de46531d2e0 ""
  "/usr/share/texlive/texmf-dist/tex/latex/mathtools/mhsetup.sty" 1496786006 5317 cf75154a8a7e6436f05a5be497f0b05e ""
  "/usr/share/texlive/texmf-dist/tex/latex/psnfss/times.sty" 1480098837 857 6c716f26c5eadfb81029fcd6ce2d45e6 ""
  "/usr/share/texlive/texmf-dist/tex/latex/sectsty/sectsty.sty" 1480098838 22423 d476012cd03f82f9475ad54ba6cd3267 ""
  "/usr/share/texlive/texmf-dist/tex/latex/tools/calc.sty" 1480098841 10214 d03d065f799d54f6b7e9b175f8d84279 ""
  "/usr/share/texlive/texmf-dist/tex/latex/tools/multicol.sty" 1492297155 30180 4d723b83c66873ba53f72c4a8730d6d3 ""
  "/usr/share/texlive/texmf-dist/tex/latex/url/url.sty" 1480098842 12796 8edb7d69a20b857904dd0ea757c14ec9 ""
  "/usr/share/texlive/texmf-dist/tex/latex/wrapfig/wrapfig.sty" 1480098843 26220 3701aebf80ccdef248c0c20dd062fea9 ""
  "/usr/share/texlive/texmf-dist/tex/latex/xcolor/svgnam.def" 1480098843 4620 ef4794ae13f75d0c199ba494bc41ff4b ""
  "/usr/share/texlive/texmf-dist/tex/latex/xcolor/xcolor.sty" 1480098843 55589 34128738f682d033422ca125f82e5d62 ""
  "/usr/share/texlive/texmf-dist/web2c/texmf.cnf" 1520210507 32485 c64754543d8ac501bea6e75e209ea521 ""
  "/usr/share/texmf/web2c/texmf.cnf" 1520210507 32485 c64754543d8ac501bea6e75e209ea521 ""
  "/var/lib/texmf/web2c/xetex/xelatex.fmt" 1551275675 3708261 3f5db5e9c5626453614c823860f2c45b ""
  "a0poster.cls" 1558333464 6176 37402c6052502599d35b9e16a21767aa ""
  "a0size.sty" 1558333464 7728 3b92cf7fd22bdf46734222814afe7554 ""
  "conference_poster_6.aux" 1558369549 1049 36f516204dd2e74ccf99e6bdd3cc880e ""
  "conference_poster_6.bbl" 1558365457 680 de2178176765aaef04661f07d097e553 "bibtex conference_poster_6"
  "conference_poster_6.tex" 1558369549 12767 7a101bd80a11bfe14a24064f8b8b754e ""
  "figures/accuracy_precision_recall_f1_scores.png" 1557120460 115553 d4bc57b26e28c9332e32a2b9809ea42a ""
  "figures/error_distribution.png" 1557120460 184027 519f53d2e4673dd9589d505d361009a8 ""
  "figures/logo_poster.pdf" 1547733434 27718 2ab5c421fe5a167b3fc2fba1743b4515 ""
  "figures/multi_graphical_model.pdf" 1557120460 12458 8edfcb0438a55b48c8c2045f82b01591 ""
  "figures/nights.png" 1558362984 176124 3ac9842fa829617287ec2eb4493056f0 ""
  (generated)
  "conference_poster_6.log"
  "conference_poster_6.aux"
  "conference_poster_6.pdf"
