\relax 
\citation{changepoint}
\citation{Pearl88}
\citation{*}
\bibstyle{plain}
\bibdata{biblio}
\bibcite{changepoint}{1}
\bibcite{age-dependency-ratio}{2}
\bibcite{Pearl88}{3}
\@writefile{lof}{\contentsline {figure}{\numberline {1}{\ignorespaces \color  {Green} Illustration de données de capteurs centrées autour de minuit montrant un clair changement dans le nombre d'activation\relax }}{1}}
\@writefile{lof}{\contentsline {figure}{\numberline {2}{\ignorespaces \color  {Green} Représentation graphique du réseau bayésien du modèle de sommeil\relax }}{1}}
\newlabel{equ:M_bernoulli}{{1}{1}}
\newlabel{equ:S_t_def}{{2}{1}}
\newlabel{equ:map}{{3}{1}}
\newlabel{equ:map_detail}{{4}{1}}
\newlabel{equ:no-soft-evidence}{{6}{1}}
\@writefile{lof}{\contentsline {figure}{\numberline {3}{\ignorespaces \color  {Green} Diagramme en boite de l'erreur sur $T_s$ et $T_w$\relax }}{1}}
\@writefile{lof}{\contentsline {figure}{\numberline {4}{\ignorespaces \color  {Green} Histogramme de la justesse, précision, rappel et score F1 des nuits\relax }}{1}}
